%YAML 1.1
%TAG !u! tag:unity3d.com,2011:
--- !u!1001 &1265308325767578363
PrefabInstance:
  m_ObjectHideFlags: 0
  serializedVersion: 2
  m_Modification:
    serializedVersion: 2
    m_TransformParent: {fileID: 0}
    m_Modifications:
    - target: {fileID: 1963626779317888042, guid: 08e2f5463722b394ca86ab959e1ef02a,
        type: 3}
      propertyPath: m_RootOrder
      value: 0
      objectReference: {fileID: 0}
    - target: {fileID: 1963626779317888042, guid: 08e2f5463722b394ca86ab959e1ef02a,
        type: 3}
      propertyPath: m_LocalPosition.x
      value: 0
      objectReference: {fileID: 0}
    - target: {fileID: 1963626779317888042, guid: 08e2f5463722b394ca86ab959e1ef02a,
        type: 3}
      propertyPath: m_LocalPosition.y
      value: 0
      objectReference: {fileID: 0}
    - target: {fileID: 1963626779317888042, guid: 08e2f5463722b394ca86ab959e1ef02a,
        type: 3}
      propertyPath: m_LocalPosition.z
      value: 0
      objectReference: {fileID: 0}
    - target: {fileID: 1963626779317888042, guid: 08e2f5463722b394ca86ab959e1ef02a,
        type: 3}
      propertyPath: m_LocalRotation.w
      value: 1
      objectReference: {fileID: 0}
    - target: {fileID: 1963626779317888042, guid: 08e2f5463722b394ca86ab959e1ef02a,
        type: 3}
      propertyPath: m_LocalRotation.x
      value: -0
      objectReference: {fileID: 0}
    - target: {fileID: 1963626779317888042, guid: 08e2f5463722b394ca86ab959e1ef02a,
        type: 3}
      propertyPath: m_LocalRotation.y
      value: -0
      objectReference: {fileID: 0}
    - target: {fileID: 1963626779317888042, guid: 08e2f5463722b394ca86ab959e1ef02a,
        type: 3}
      propertyPath: m_LocalRotation.z
      value: -0
      objectReference: {fileID: 0}
    - target: {fileID: 1963626779317888042, guid: 08e2f5463722b394ca86ab959e1ef02a,
        type: 3}
      propertyPath: m_LocalEulerAnglesHint.x
      value: 0
      objectReference: {fileID: 0}
    - target: {fileID: 1963626779317888042, guid: 08e2f5463722b394ca86ab959e1ef02a,
        type: 3}
      propertyPath: m_LocalEulerAnglesHint.y
      value: 0
      objectReference: {fileID: 0}
    - target: {fileID: 1963626779317888042, guid: 08e2f5463722b394ca86ab959e1ef02a,
        type: 3}
      propertyPath: m_LocalEulerAnglesHint.z
      value: 0
      objectReference: {fileID: 0}
    - target: {fileID: 5750064151390549912, guid: 08e2f5463722b394ca86ab959e1ef02a,
        type: 3}
      propertyPath: m_Size.x
      value: 2.2512832
      objectReference: {fileID: 0}
    - target: {fileID: 5750064151390549912, guid: 08e2f5463722b394ca86ab959e1ef02a,
        type: 3}
      propertyPath: m_Size.y
      value: 2.3994546
      objectReference: {fileID: 0}
    - target: {fileID: 5750064151390549912, guid: 08e2f5463722b394ca86ab959e1ef02a,
        type: 3}
      propertyPath: m_Size.z
      value: 2.2532923
      objectReference: {fileID: 0}
    - target: {fileID: 5750064151390549912, guid: 08e2f5463722b394ca86ab959e1ef02a,
        type: 3}
      propertyPath: m_Center.x
      value: -0.015232444
      objectReference: {fileID: 0}
    - target: {fileID: 5750064151390549912, guid: 08e2f5463722b394ca86ab959e1ef02a,
        type: 3}
      propertyPath: m_Center.y
      value: -0.11830169
      objectReference: {fileID: 0}
    - target: {fileID: 5750064151390549912, guid: 08e2f5463722b394ca86ab959e1ef02a,
        type: 3}
      propertyPath: m_Center.z
      value: 0.029372692
      objectReference: {fileID: 0}
    - target: {fileID: 7870633404965551760, guid: 08e2f5463722b394ca86ab959e1ef02a,
        type: 3}
      propertyPath: ingridientType
      value: 2
      objectReference: {fileID: 0}
    - target: {fileID: 8258306342640503186, guid: 08e2f5463722b394ca86ab959e1ef02a,
        type: 3}
      propertyPath: m_Name
      value: water
      objectReference: {fileID: 0}
    - target: {fileID: 8289685900810379745, guid: 08e2f5463722b394ca86ab959e1ef02a,
        type: 3}
      propertyPath: m_Materials.Array.data[0]
      value: 
      objectReference: {fileID: 2100000, guid: d3e1eacbfa4e16148a2840502934b7d6, type: 2}
    - target: {fileID: 8394275084134296075, guid: 08e2f5463722b394ca86ab959e1ef02a,
        type: 3}
      propertyPath: m_Mesh
      value: 
      objectReference: {fileID: 289301614986012343, guid: b4104c06983cbea43ac97000598e0c35,
        type: 3}
    m_RemovedComponents: []
    m_AddedGameObjects: []
  m_SourcePrefab: {fileID: 100100000, guid: 08e2f5463722b394ca86ab959e1ef02a, type: 3}
