%YAML 1.1
%TAG !u! tag:unity3d.com,2011:
--- !u!1001 &604388561435796899
PrefabInstance:
  m_ObjectHideFlags: 0
  serializedVersion: 2
  m_Modification:
    serializedVersion: 2
    m_TransformParent: {fileID: 0}
    m_Modifications:
    - target: {fileID: 137789805515497125, guid: 3eafb22651d8fba4086b4a907e3d25d3,
        type: 3}
      propertyPath: m_RootOrder
      value: -1
      objectReference: {fileID: 0}
    - target: {fileID: 137789805515497125, guid: 3eafb22651d8fba4086b4a907e3d25d3,
        type: 3}
      propertyPath: m_LocalPosition.x
      value: 0
      objectReference: {fileID: 0}
    - target: {fileID: 137789805515497125, guid: 3eafb22651d8fba4086b4a907e3d25d3,
        type: 3}
      propertyPath: m_LocalPosition.y
      value: 0
      objectReference: {fileID: 0}
    - target: {fileID: 137789805515497125, guid: 3eafb22651d8fba4086b4a907e3d25d3,
        type: 3}
      propertyPath: m_LocalPosition.z
      value: 0
      objectReference: {fileID: 0}
    - target: {fileID: 137789805515497125, guid: 3eafb22651d8fba4086b4a907e3d25d3,
        type: 3}
      propertyPath: m_LocalRotation.w
      value: 1
      objectReference: {fileID: 0}
    - target: {fileID: 137789805515497125, guid: 3eafb22651d8fba4086b4a907e3d25d3,
        type: 3}
      propertyPath: m_LocalRotation.x
      value: 0
      objectReference: {fileID: 0}
    - target: {fileID: 137789805515497125, guid: 3eafb22651d8fba4086b4a907e3d25d3,
        type: 3}
      propertyPath: m_LocalRotation.y
      value: 0
      objectReference: {fileID: 0}
    - target: {fileID: 137789805515497125, guid: 3eafb22651d8fba4086b4a907e3d25d3,
        type: 3}
      propertyPath: m_LocalRotation.z
      value: 0
      objectReference: {fileID: 0}
    - target: {fileID: 137789805515497125, guid: 3eafb22651d8fba4086b4a907e3d25d3,
        type: 3}
      propertyPath: m_LocalEulerAnglesHint.x
      value: 0
      objectReference: {fileID: 0}
    - target: {fileID: 137789805515497125, guid: 3eafb22651d8fba4086b4a907e3d25d3,
        type: 3}
      propertyPath: m_LocalEulerAnglesHint.y
      value: 0
      objectReference: {fileID: 0}
    - target: {fileID: 137789805515497125, guid: 3eafb22651d8fba4086b4a907e3d25d3,
        type: 3}
      propertyPath: m_LocalEulerAnglesHint.z
      value: 0
      objectReference: {fileID: 0}
    - target: {fileID: 163519214878091692, guid: 3eafb22651d8fba4086b4a907e3d25d3,
        type: 3}
      propertyPath: m_Materials.Array.size
      value: 1
      objectReference: {fileID: 0}
    - target: {fileID: 163519214878091692, guid: 3eafb22651d8fba4086b4a907e3d25d3,
        type: 3}
      propertyPath: m_Materials.Array.data[0]
      value: 
      objectReference: {fileID: 2100000, guid: 9196129d90fa6f747ae9d11f09fcaec4, type: 2}
    - target: {fileID: 220833286730916361, guid: 3eafb22651d8fba4086b4a907e3d25d3,
        type: 3}
      propertyPath: m_Size.x
      value: 0.2747383
      objectReference: {fileID: 0}
    - target: {fileID: 220833286730916361, guid: 3eafb22651d8fba4086b4a907e3d25d3,
        type: 3}
      propertyPath: m_Size.y
      value: 0.039661527
      objectReference: {fileID: 0}
    - target: {fileID: 220833286730916361, guid: 3eafb22651d8fba4086b4a907e3d25d3,
        type: 3}
      propertyPath: m_Size.z
      value: 0.13497543
      objectReference: {fileID: 0}
    - target: {fileID: 220833286730916361, guid: 3eafb22651d8fba4086b4a907e3d25d3,
        type: 3}
      propertyPath: m_Center.x
      value: -0.004011154
      objectReference: {fileID: 0}
    - target: {fileID: 220833286730916361, guid: 3eafb22651d8fba4086b4a907e3d25d3,
        type: 3}
      propertyPath: m_Center.y
      value: -0.006789744
      objectReference: {fileID: 0}
    - target: {fileID: 220833286730916361, guid: 3eafb22651d8fba4086b4a907e3d25d3,
        type: 3}
      propertyPath: m_Center.z
      value: -0.0474658
      objectReference: {fileID: 0}
    - target: {fileID: 933925137601248240, guid: 3eafb22651d8fba4086b4a907e3d25d3,
        type: 3}
      propertyPath: m_Mesh
      value: 
      objectReference: {fileID: 898980635883374786, guid: d5105cdc42389ff4692af5ef44612c9b,
        type: 3}
    - target: {fileID: 933925137601248240, guid: 3eafb22651d8fba4086b4a907e3d25d3,
        type: 3}
      propertyPath: m_Convex
      value: 1
      objectReference: {fileID: 0}
    - target: {fileID: 1936498553154879077, guid: 3eafb22651d8fba4086b4a907e3d25d3,
        type: 3}
      propertyPath: m_Mesh
      value: 
      objectReference: {fileID: 898980635883374786, guid: d5105cdc42389ff4692af5ef44612c9b,
        type: 3}
    - target: {fileID: 5275732534116569734, guid: 3eafb22651d8fba4086b4a907e3d25d3,
        type: 3}
      propertyPath: m_LocalPosition.x
      value: 0.1175
      objectReference: {fileID: 0}
    - target: {fileID: 5275732534116569734, guid: 3eafb22651d8fba4086b4a907e3d25d3,
        type: 3}
      propertyPath: m_LocalPosition.y
      value: 0
      objectReference: {fileID: 0}
    - target: {fileID: 5467042194974343559, guid: 3eafb22651d8fba4086b4a907e3d25d3,
        type: 3}
      propertyPath: m_Name
      value: cabel_blue
      objectReference: {fileID: 0}
    - target: {fileID: 7189099180792170300, guid: 3eafb22651d8fba4086b4a907e3d25d3,
        type: 3}
      propertyPath: cableType
      value: 2
      objectReference: {fileID: 0}
    m_RemovedComponents:
    - {fileID: 933925137601248240, guid: 3eafb22651d8fba4086b4a907e3d25d3, type: 3}
    m_AddedGameObjects: []
  m_SourcePrefab: {fileID: 100100000, guid: 3eafb22651d8fba4086b4a907e3d25d3, type: 3}
