%YAML 1.1
%TAG !u! tag:unity3d.com,2011:
--- !u!1001 &604388561435796899
PrefabInstance:
  m_ObjectHideFlags: 0
  serializedVersion: 2
  m_Modification:
    serializedVersion: 2
    m_TransformParent: {fileID: 0}
    m_Modifications:
    - target: {fileID: 137789805515497125, guid: 3eafb22651d8fba4086b4a907e3d25d3,
        type: 3}
      propertyPath: m_RootOrder
      value: 0
      objectReference: {fileID: 0}
    - target: {fileID: 137789805515497125, guid: 3eafb22651d8fba4086b4a907e3d25d3,
        type: 3}
      propertyPath: m_LocalPosition.x
      value: 0
      objectReference: {fileID: 0}
    - target: {fileID: 137789805515497125, guid: 3eafb22651d8fba4086b4a907e3d25d3,
        type: 3}
      propertyPath: m_LocalPosition.y
      value: 0
      objectReference: {fileID: 0}
    - target: {fileID: 137789805515497125, guid: 3eafb22651d8fba4086b4a907e3d25d3,
        type: 3}
      propertyPath: m_LocalPosition.z
      value: 0
      objectReference: {fileID: 0}
    - target: {fileID: 137789805515497125, guid: 3eafb22651d8fba4086b4a907e3d25d3,
        type: 3}
      propertyPath: m_LocalRotation.w
      value: 1
      objectReference: {fileID: 0}
    - target: {fileID: 137789805515497125, guid: 3eafb22651d8fba4086b4a907e3d25d3,
        type: 3}
      propertyPath: m_LocalRotation.x
      value: 0
      objectReference: {fileID: 0}
    - target: {fileID: 137789805515497125, guid: 3eafb22651d8fba4086b4a907e3d25d3,
        type: 3}
      propertyPath: m_LocalRotation.y
      value: 0
      objectReference: {fileID: 0}
    - target: {fileID: 137789805515497125, guid: 3eafb22651d8fba4086b4a907e3d25d3,
        type: 3}
      propertyPath: m_LocalRotation.z
      value: 0
      objectReference: {fileID: 0}
    - target: {fileID: 137789805515497125, guid: 3eafb22651d8fba4086b4a907e3d25d3,
        type: 3}
      propertyPath: m_LocalEulerAnglesHint.x
      value: 0
      objectReference: {fileID: 0}
    - target: {fileID: 137789805515497125, guid: 3eafb22651d8fba4086b4a907e3d25d3,
        type: 3}
      propertyPath: m_LocalEulerAnglesHint.y
      value: 0
      objectReference: {fileID: 0}
    - target: {fileID: 137789805515497125, guid: 3eafb22651d8fba4086b4a907e3d25d3,
        type: 3}
      propertyPath: m_LocalEulerAnglesHint.z
      value: 0
      objectReference: {fileID: 0}
    - target: {fileID: 163519214878091692, guid: 3eafb22651d8fba4086b4a907e3d25d3,
        type: 3}
      propertyPath: m_Materials.Array.size
      value: 1
      objectReference: {fileID: 0}
    - target: {fileID: 163519214878091692, guid: 3eafb22651d8fba4086b4a907e3d25d3,
        type: 3}
      propertyPath: m_Materials.Array.data[0]
      value: 
      objectReference: {fileID: 2100000, guid: 8864f6369393a654c9a7b27eafd9d5a2, type: 2}
    - target: {fileID: 220833286730916361, guid: 3eafb22651d8fba4086b4a907e3d25d3,
        type: 3}
      propertyPath: m_Size.x
      value: 0.2734184
      objectReference: {fileID: 0}
    - target: {fileID: 220833286730916361, guid: 3eafb22651d8fba4086b4a907e3d25d3,
        type: 3}
      propertyPath: m_Size.y
      value: 0.040881
      objectReference: {fileID: 0}
    - target: {fileID: 220833286730916361, guid: 3eafb22651d8fba4086b4a907e3d25d3,
        type: 3}
      propertyPath: m_Size.z
      value: 0.13717067
      objectReference: {fileID: 0}
    - target: {fileID: 220833286730916361, guid: 3eafb22651d8fba4086b4a907e3d25d3,
        type: 3}
      propertyPath: m_Center.x
      value: 0.005
      objectReference: {fileID: 0}
    - target: {fileID: 220833286730916361, guid: 3eafb22651d8fba4086b4a907e3d25d3,
        type: 3}
      propertyPath: m_Center.y
      value: 0
      objectReference: {fileID: 0}
    - target: {fileID: 220833286730916361, guid: 3eafb22651d8fba4086b4a907e3d25d3,
        type: 3}
      propertyPath: m_Center.z
      value: -0.04642824
      objectReference: {fileID: 0}
    - target: {fileID: 1936498553154879077, guid: 3eafb22651d8fba4086b4a907e3d25d3,
        type: 3}
      propertyPath: m_Mesh
      value: 
      objectReference: {fileID: 8164665899494003736, guid: d5105cdc42389ff4692af5ef44612c9b,
        type: 3}
    - target: {fileID: 5275732534116569734, guid: 3eafb22651d8fba4086b4a907e3d25d3,
        type: 3}
      propertyPath: m_LocalPosition.x
      value: 0.1138
      objectReference: {fileID: 0}
    - target: {fileID: 5275732534116569734, guid: 3eafb22651d8fba4086b4a907e3d25d3,
        type: 3}
      propertyPath: m_LocalPosition.y
      value: -0.053
      objectReference: {fileID: 0}
    - target: {fileID: 5275732534116569734, guid: 3eafb22651d8fba4086b4a907e3d25d3,
        type: 3}
      propertyPath: m_LocalRotation.w
      value: 0.99144495
      objectReference: {fileID: 0}
    - target: {fileID: 5275732534116569734, guid: 3eafb22651d8fba4086b4a907e3d25d3,
        type: 3}
      propertyPath: m_LocalRotation.z
      value: -0.13052596
      objectReference: {fileID: 0}
    - target: {fileID: 5275732534116569734, guid: 3eafb22651d8fba4086b4a907e3d25d3,
        type: 3}
      propertyPath: m_LocalEulerAnglesHint.z
      value: -15
      objectReference: {fileID: 0}
    - target: {fileID: 5467042194974343559, guid: 3eafb22651d8fba4086b4a907e3d25d3,
        type: 3}
      propertyPath: m_Name
      value: cabel_green
      objectReference: {fileID: 0}
    - target: {fileID: 7189099180792170300, guid: 3eafb22651d8fba4086b4a907e3d25d3,
        type: 3}
      propertyPath: cableType
      value: 3
      objectReference: {fileID: 0}
    m_RemovedComponents: []
    m_AddedGameObjects: []
  m_SourcePrefab: {fileID: 100100000, guid: 3eafb22651d8fba4086b4a907e3d25d3, type: 3}
